%YAML 1.1
%TAG !u! tag:unity3d.com,2011:
--- !u!1 &1945481158847078048
GameObject:
  m_ObjectHideFlags: 0
  m_CorrespondingSourceObject: {fileID: 0}
  m_PrefabInstance: {fileID: 0}
  m_PrefabAsset: {fileID: 0}
  serializedVersion: 6
  m_Component:
  - component: {fileID: 6132669413144543029}
  - component: {fileID: 2313991333432313574}
  - component: {fileID: 2013130803780590608}
  m_Layer: 31
  m_Name: Layer1
  m_TagString: Untagged
  m_Icon: {fileID: 0}
  m_NavMeshLayer: 0
  m_StaticEditorFlags: 0
  m_IsActive: 1
--- !u!4 &6132669413144543029
Transform:
  m_ObjectHideFlags: 0
  m_CorrespondingSourceObject: {fileID: 0}
  m_PrefabInstance: {fileID: 0}
  m_PrefabAsset: {fileID: 0}
  m_GameObject: {fileID: 1945481158847078048}
  m_LocalRotation: {x: -0, y: -0, z: -0, w: 1}
  m_LocalPosition: {x: 0, y: 0, z: 0}
  m_LocalScale: {x: 1, y: 1, z: 1}
  m_Children: []
  m_Father: {fileID: 1331943784497967424}
  m_RootOrder: 0
  m_LocalEulerAnglesHint: {x: 0, y: 0, z: 0}
--- !u!1839735485 &2313991333432313574
Tilemap:
  m_ObjectHideFlags: 0
  m_CorrespondingSourceObject: {fileID: 0}
  m_PrefabInstance: {fileID: 0}
  m_PrefabAsset: {fileID: 0}
  m_GameObject: {fileID: 1945481158847078048}
  m_Enabled: 1
  m_Tiles:
  - first: {x: -1, y: -1, z: 0}
    second:
      serializedVersion: 2
      m_TileIndex: 12
      m_TileSpriteIndex: 12
      m_TileMatrixIndex: 0
      m_TileColorIndex: 0
      m_TileObjectToInstantiateIndex: 65535
      m_AllTileFlags: 1073741825
  - first: {x: 0, y: -1, z: 0}
    second:
      serializedVersion: 2
      m_TileIndex: 13
      m_TileSpriteIndex: 13
      m_TileMatrixIndex: 0
      m_TileColorIndex: 0
      m_TileObjectToInstantiateIndex: 65535
      m_AllTileFlags: 1073741825
  - first: {x: 1, y: -1, z: 0}
    second:
      serializedVersion: 2
      m_TileIndex: 14
      m_TileSpriteIndex: 14
      m_TileMatrixIndex: 0
      m_TileColorIndex: 0
      m_TileObjectToInstantiateIndex: 65535
      m_AllTileFlags: 1073741825
  - first: {x: 2, y: -1, z: 0}
    second:
      serializedVersion: 2
      m_TileIndex: 15
      m_TileSpriteIndex: 15
      m_TileMatrixIndex: 0
      m_TileColorIndex: 0
      m_TileObjectToInstantiateIndex: 65535
      m_AllTileFlags: 1073741825
  - first: {x: -1, y: 0, z: 0}
    second:
      serializedVersion: 2
      m_TileIndex: 8
      m_TileSpriteIndex: 8
      m_TileMatrixIndex: 0
      m_TileColorIndex: 0
      m_TileObjectToInstantiateIndex: 65535
      m_AllTileFlags: 1073741825
  - first: {x: 0, y: 0, z: 0}
    second:
      serializedVersion: 2
      m_TileIndex: 9
      m_TileSpriteIndex: 9
      m_TileMatrixIndex: 0
      m_TileColorIndex: 0
      m_TileObjectToInstantiateIndex: 65535
      m_AllTileFlags: 1073741825
  - first: {x: 1, y: 0, z: 0}
    second:
      serializedVersion: 2
      m_TileIndex: 10
      m_TileSpriteIndex: 10
      m_TileMatrixIndex: 0
      m_TileColorIndex: 0
      m_TileObjectToInstantiateIndex: 65535
      m_AllTileFlags: 1073741825
  - first: {x: 2, y: 0, z: 0}
    second:
      serializedVersion: 2
      m_TileIndex: 11
      m_TileSpriteIndex: 11
      m_TileMatrixIndex: 0
      m_TileColorIndex: 0
      m_TileObjectToInstantiateIndex: 65535
      m_AllTileFlags: 1073741825
  - first: {x: -1, y: 1, z: 0}
    second:
      serializedVersion: 2
      m_TileIndex: 4
      m_TileSpriteIndex: 4
      m_TileMatrixIndex: 0
      m_TileColorIndex: 0
      m_TileObjectToInstantiateIndex: 65535
      m_AllTileFlags: 1073741825
  - first: {x: 0, y: 1, z: 0}
    second:
      serializedVersion: 2
      m_TileIndex: 5
      m_TileSpriteIndex: 5
      m_TileMatrixIndex: 0
      m_TileColorIndex: 0
      m_TileObjectToInstantiateIndex: 65535
      m_AllTileFlags: 1073741825
  - first: {x: 1, y: 1, z: 0}
    second:
      serializedVersion: 2
      m_TileIndex: 6
      m_TileSpriteIndex: 6
      m_TileMatrixIndex: 0
      m_TileColorIndex: 0
      m_TileObjectToInstantiateIndex: 65535
      m_AllTileFlags: 1073741825
  - first: {x: 2, y: 1, z: 0}
    second:
      serializedVersion: 2
      m_TileIndex: 7
      m_TileSpriteIndex: 7
      m_TileMatrixIndex: 0
      m_TileColorIndex: 0
      m_TileObjectToInstantiateIndex: 65535
      m_AllTileFlags: 1073741825
  - first: {x: -1, y: 2, z: 0}
    second:
      serializedVersion: 2
      m_TileIndex: 0
      m_TileSpriteIndex: 0
      m_TileMatrixIndex: 0
      m_TileColorIndex: 0
      m_TileObjectToInstantiateIndex: 65535
      m_AllTileFlags: 1073741825
  - first: {x: 0, y: 2, z: 0}
    second:
      serializedVersion: 2
      m_TileIndex: 1
      m_TileSpriteIndex: 1
      m_TileMatrixIndex: 0
      m_TileColorIndex: 0
      m_TileObjectToInstantiateIndex: 65535
      m_AllTileFlags: 1073741825
  - first: {x: 1, y: 2, z: 0}
    second:
      serializedVersion: 2
      m_TileIndex: 2
      m_TileSpriteIndex: 2
      m_TileMatrixIndex: 0
      m_TileColorIndex: 0
      m_TileObjectToInstantiateIndex: 65535
      m_AllTileFlags: 1073741825
  - first: {x: 2, y: 2, z: 0}
    second:
      serializedVersion: 2
      m_TileIndex: 3
      m_TileSpriteIndex: 3
      m_TileMatrixIndex: 0
      m_TileColorIndex: 0
      m_TileObjectToInstantiateIndex: 65535
      m_AllTileFlags: 1073741825
  m_AnimatedTiles: {}
  m_TileAssetArray:
  - m_RefCount: 1
    m_Data: {fileID: 11400000, guid: f3062a929a89549ab8af63a5d0dafe88, type: 2}
  - m_RefCount: 1
    m_Data: {fileID: 11400000, guid: 6889c450bd77b47dfa3f311c9bde6704, type: 2}
  - m_RefCount: 1
    m_Data: {fileID: 11400000, guid: abd5cfb870345487d95a2c2da23c0368, type: 2}
  - m_RefCount: 1
    m_Data: {fileID: 11400000, guid: 1882c417a931d4551baed27cb491cd21, type: 2}
  - m_RefCount: 1
    m_Data: {fileID: 11400000, guid: cec3401b80eb4467b957d3507dee9453, type: 2}
  - m_RefCount: 1
    m_Data: {fileID: 11400000, guid: 826e75da77c6a42edac1f09c3601c1ee, type: 2}
  - m_RefCount: 1
    m_Data: {fileID: 11400000, guid: 06f8ee15aea0e4e0abbee893ef08d060, type: 2}
  - m_RefCount: 1
    m_Data: {fileID: 11400000, guid: 5f3930bb2c17b4572bb7117683d5f46d, type: 2}
  - m_RefCount: 1
    m_Data: {fileID: 11400000, guid: ea98d0f90cc6e4b728d81ac05866db74, type: 2}
  - m_RefCount: 1
    m_Data: {fileID: 11400000, guid: 1edca8dd6eec74a4a9be013f38d2a443, type: 2}
  - m_RefCount: 1
    m_Data: {fileID: 11400000, guid: 75187621b0e244c8f95efa794e0d8342, type: 2}
  - m_RefCount: 1
    m_Data: {fileID: 11400000, guid: b0fded34c0c85438f9f1ad1cf3073d4c, type: 2}
  - m_RefCount: 1
    m_Data: {fileID: 11400000, guid: 54d994edbe83646dc932834a0733437b, type: 2}
  - m_RefCount: 1
    m_Data: {fileID: 11400000, guid: 23d2252c5593d46099b3e50d9ed28d44, type: 2}
  - m_RefCount: 1
    m_Data: {fileID: 11400000, guid: b990424223bb142e3acd78d29d9b4153, type: 2}
  - m_RefCount: 1
    m_Data: {fileID: 11400000, guid: 2a170257f5ff24df78f7576c6177f1b8, type: 2}
  m_TileSpriteArray:
  - m_RefCount: 1
    m_Data: {fileID: -9187162466809325588, guid: f97ccf5ef508042a3a8d6ab0278fd10f,
      type: 3}
  - m_RefCount: 1
    m_Data: {fileID: 1234019593944127586, guid: f97ccf5ef508042a3a8d6ab0278fd10f,
      type: 3}
  - m_RefCount: 1
    m_Data: {fileID: 988010649290240374, guid: f97ccf5ef508042a3a8d6ab0278fd10f, type: 3}
  - m_RefCount: 1
    m_Data: {fileID: 5406351467217860732, guid: f97ccf5ef508042a3a8d6ab0278fd10f,
      type: 3}
  - m_RefCount: 1
    m_Data: {fileID: -3621292311885885923, guid: f97ccf5ef508042a3a8d6ab0278fd10f,
      type: 3}
  - m_RefCount: 1
    m_Data: {fileID: -2605296803643229707, guid: f97ccf5ef508042a3a8d6ab0278fd10f,
      type: 3}
  - m_RefCount: 1
    m_Data: {fileID: 3298324634511034778, guid: f97ccf5ef508042a3a8d6ab0278fd10f,
      type: 3}
  - m_RefCount: 1
    m_Data: {fileID: 1884097735588202180, guid: f97ccf5ef508042a3a8d6ab0278fd10f,
      type: 3}
  - m_RefCount: 1
    m_Data: {fileID: -1446574553877763096, guid: f97ccf5ef508042a3a8d6ab0278fd10f,
      type: 3}
  - m_RefCount: 1
    m_Data: {fileID: -5470366735609414490, guid: f97ccf5ef508042a3a8d6ab0278fd10f,
      type: 3}
  - m_RefCount: 1
    m_Data: {fileID: -4396715466582703342, guid: f97ccf5ef508042a3a8d6ab0278fd10f,
      type: 3}
  - m_RefCount: 1
    m_Data: {fileID: -982689522055889438, guid: f97ccf5ef508042a3a8d6ab0278fd10f,
      type: 3}
  - m_RefCount: 1
    m_Data: {fileID: -2941242068237827324, guid: f97ccf5ef508042a3a8d6ab0278fd10f,
      type: 3}
  - m_RefCount: 1
    m_Data: {fileID: -7393455920288303288, guid: f97ccf5ef508042a3a8d6ab0278fd10f,
      type: 3}
  - m_RefCount: 1
    m_Data: {fileID: -8275657375065150700, guid: f97ccf5ef508042a3a8d6ab0278fd10f,
      type: 3}
  - m_RefCount: 1
    m_Data: {fileID: -3046273230594673304, guid: f97ccf5ef508042a3a8d6ab0278fd10f,
      type: 3}
  m_TileMatrixArray:
  - m_RefCount: 16
    m_Data:
      e00: 1
      e01: 0
      e02: 0
      e03: 0
      e10: 0
      e11: 1
      e12: 0
      e13: 0
      e20: 0
      e21: 0
      e22: 1
      e23: 0
      e30: 0
      e31: 0
      e32: 0
      e33: 1
  m_TileColorArray:
  - m_RefCount: 16
    m_Data: {r: 1, g: 1, b: 1, a: 1}
  m_TileObjectToInstantiateArray: []
  m_AnimationFrameRate: 1
  m_Color: {r: 1, g: 1, b: 1, a: 1}
  m_Origin: {x: -1, y: -1, z: 0}
  m_Size: {x: 4, y: 4, z: 1}
  m_TileAnchor: {x: 0.5, y: 0.5, z: 0}
  m_TileOrientation: 0
  m_TileOrientationMatrix:
    e00: 1
    e01: 0
    e02: 0
    e03: 0
    e10: 0
    e11: 1
    e12: 0
    e13: 0
    e20: 0
    e21: 0
    e22: 1
    e23: 0
    e30: 0
    e31: 0
    e32: 0
    e33: 1
--- !u!483693784 &2013130803780590608
TilemapRenderer:
  m_ObjectHideFlags: 0
  m_CorrespondingSourceObject: {fileID: 0}
  m_PrefabInstance: {fileID: 0}
  m_PrefabAsset: {fileID: 0}
  m_GameObject: {fileID: 1945481158847078048}
  m_Enabled: 0
  m_CastShadows: 0
  m_ReceiveShadows: 0
  m_DynamicOccludee: 0
  m_MotionVectors: 1
  m_LightProbeUsage: 0
  m_ReflectionProbeUsage: 0
  m_RayTracingMode: 0
  m_RenderingLayerMask: 1
  m_RendererPriority: 0
  m_Materials:
  - {fileID: 10754, guid: 0000000000000000f000000000000000, type: 0}
  m_StaticBatchInfo:
    firstSubMesh: 0
    subMeshCount: 0
  m_StaticBatchRoot: {fileID: 0}
  m_ProbeAnchor: {fileID: 0}
  m_LightProbeVolumeOverride: {fileID: 0}
  m_ScaleInLightmap: 1
  m_ReceiveGI: 1
  m_PreserveUVs: 0
  m_IgnoreNormalsForChartDetection: 0
  m_ImportantGI: 0
  m_StitchLightmapSeams: 1
  m_SelectedEditorRenderState: 0
  m_MinimumChartSize: 4
  m_AutoUVMaxDistance: 0.5
  m_AutoUVMaxAngle: 89
  m_LightmapParameters: {fileID: 0}
  m_SortingLayerID: 0
  m_SortingLayer: 0
  m_SortingOrder: 0
  m_ChunkSize: {x: 32, y: 32, z: 32}
  m_ChunkCullingBounds: {x: 0, y: 0, z: 0}
  m_MaxChunkCount: 16
  m_MaxFrameAge: 16
  m_SortOrder: 0
  m_Mode: 0
  m_DetectChunkCullingBounds: 0
  m_MaskInteraction: 0
--- !u!1 &2994614104173840386
GameObject:
  m_ObjectHideFlags: 0
  m_CorrespondingSourceObject: {fileID: 0}
  m_PrefabInstance: {fileID: 0}
  m_PrefabAsset: {fileID: 0}
  serializedVersion: 6
  m_Component:
  - component: {fileID: 1331943784497967424}
  - component: {fileID: 8510024672076578944}
  m_Layer: 31
  m_Name: Compy
  m_TagString: Untagged
  m_Icon: {fileID: 0}
  m_NavMeshLayer: 0
  m_StaticEditorFlags: 0
  m_IsActive: 1
--- !u!4 &1331943784497967424
Transform:
  m_ObjectHideFlags: 0
  m_CorrespondingSourceObject: {fileID: 0}
  m_PrefabInstance: {fileID: 0}
  m_PrefabAsset: {fileID: 0}
  m_GameObject: {fileID: 2994614104173840386}
  m_LocalRotation: {x: 0, y: 0, z: 0, w: 1}
  m_LocalPosition: {x: 0, y: 0, z: 0}
  m_LocalScale: {x: 1, y: 1, z: 1}
  m_Children:
  - {fileID: 6132669413144543029}
  m_Father: {fileID: 0}
  m_RootOrder: 0
  m_LocalEulerAnglesHint: {x: 0, y: 0, z: 0}
--- !u!156049354 &8510024672076578944
Grid:
  m_ObjectHideFlags: 0
  m_CorrespondingSourceObject: {fileID: 0}
  m_PrefabInstance: {fileID: 0}
  m_PrefabAsset: {fileID: 0}
  m_GameObject: {fileID: 2994614104173840386}
  m_Enabled: 1
  m_CellSize: {x: 1, y: 1, z: 0}
  m_CellGap: {x: 0, y: 0, z: 0}
  m_CellLayout: 0
  m_CellSwizzle: 0
--- !u!114 &-7420978685453722023
MonoBehaviour:
  m_ObjectHideFlags: 0
  m_CorrespondingSourceObject: {fileID: 0}
  m_PrefabInstance: {fileID: 0}
  m_PrefabAsset: {fileID: 0}
  m_GameObject: {fileID: 0}
  m_Enabled: 1
  m_EditorHideFlags: 0
  m_Script: {fileID: 12395, guid: 0000000000000000e000000000000000, type: 0}
  m_Name: Palette Settings
  m_EditorClassIdentifier: 
  cellSizing: 0
